{
   "interfaces" : {
      "output" : {
         "address" : "192.168.32.11",
         "dns1" : "213.176.161.16",
         "dns2" : "213.176.161.18",
         "mask" : "255.255.255.0",
         "name" : "enp0s3"
      }
   },
   "wan" : {
      "commands" : [
         "/usr/share/linkat-servidor-comunicacions/blacklists_update.sh",
         "/usr/share/linkat-servidor-comunicacions/fill_delay_pool_rate.sh ",
         "/usr/share/linkat-servidor-comunicacions/generate_squidguard_db.sh",
         "/usr/share/linkat-servidor-comunicacions/set_router_weights.sh",
         "systemctl daemon-reload"
      ],
      "services" : [
         {
            "name" : "isc-dhcp-server",
            "value" : true
         },
         {
            "name" : "webmin",
            "value" : true
         },
         {
            "name" : "squid",
            "value" : true
         },
         {
            "name" : "ntp",
            "value" : true
         },
         {
            "name" : "bind9",
            "value" : true
         },
         {
            "name" : "sshd",
            "value" : true
         },
         {
            "name" : "lustitia",
            "value" : true
         }
      ],
      "variables" : [
         {
            "editable" : 1,
            "file" : "/etc/lustitia.conf",
            "label" : "% reservat (delay pools)",
            "name" : "DELAY_POOL_PERCENTAGE",
            "value" : "70",
            "wrapper" : "\""
         },
         {
            "editable" : 1,
            "file" : "/etc/lustitia.conf",
            "label" : "IP router 1",
            "name" : "ROUTER_0_IP",
            "value" : "192.168.32.1",
            "wrapper" : ""
         },
         {
            "editable" : 1,
            "file" : "/etc/lustitia.conf",
            "label" : "IP monitorització router 1",
            "name" : "ROUTER_0_IPMON",
            "value" : "192.168.32.21",
            "wrapper" : ""
         },
         {
            "editable" : 1,
            "file" : "/etc/lustitia.conf",
            "label" : "Màscara router 1",
            "name" : "ROUTER_0_MASK",
            "value" : "255.255.255.0",
            "wrapper" : ""
         },
         {
            "editable" : 1,
            "file" : "/etc/lustitia.conf",
            "label" : "Pujada router 1 (Mbits/s)",
            "name" : "ROUTER_0_RATE",
            "value" : "90",
            "wrapper" : ""
         },
         {
            "editable" : 1,
            "file" : "/etc/lustitia.conf",
            "label" : "Baixada router 1 (Mbits/s)",
            "name" : "ROUTER_0_DOWNLOAD",
            "value" : "90",
            "wrapper" : ""
         },
         {
            "editable" : 1,
            "file" : "/etc/lustitia.conf",
            "label" : "Router 2 activat?",
            "name" : "ROUTER_1_ENABLE",
            "value" : "0",
            "wrapper" : ""
         },
         {
            "editable" : 1,
            "file" : "/etc/lustitia.conf",
            "label" : "IP router 2",
            "name" : "ROUTER_1_IP",
            "value" : "192.168.32.12",
            "wrapper" : ""
         },
         {
            "editable" : 1,
            "file" : "/etc/lustitia.conf",
            "label" : "IP monitorització router 2",
            "name" : "ROUTER_1_IPMON",
            "value" : "192.168.32.22",
            "wrapper" : ""
         },
         {
            "editable" : 1,
            "file" : "/etc/lustitia.conf",
            "label" : "Màscara router 2",
            "name" : "ROUTER_1_MASK",
            "value" : "255.255.255.0",
            "wrapper" : ""
         },
         {
            "editable" : 1,
            "file" : "/etc/lustitia.conf",
            "label" : "Pujada router 2 (Mbits/s)",
            "name" : "ROUTER_1_RATE",
            "value" : "90",
            "wrapper" : ""
         },
         {
            "editable" : 1,
            "file" : "/etc/lustitia.conf",
            "label" : "Baixada router 2 (Mbits/s)",
            "name" : "ROUTER_1_DOWNLOAD",
            "value" : "90",
            "wrapper" : ""
         }
      ]
   }
}
